int solucionado(char estados_ranas[]);
void ranas_saltan(char estados_ranas[], int profundidad);
void asignar(char uno[], char dos[]);
void imprimir_ranas(char uno[]);
char ranas[] = {'R','R','R',' ','A','A','A'	};
int main() {
	ranas_saltan(ranas, 0);
	
		return 0;
}

int solucionado(char estados_ranas[]) {
	int total_rojas = 0;
	int total_azules = 0;
	for (int i = 0; i < 7; i++) {
	    if(i<4){
			if (estados_ranas[i] == 'A') {
				total_azules++;
			}
		}
		if (i > 3 && i < 7) {
			if (estados_ranas[i] == 'R') {
				total_rojas++;
			}

		}
			
	}
	if (total_azules == 3 && total_rojas == 3) {
		return 1;
	}
	return 0;
}


void  ranas_saltan(char estados_ranas[], int profundidad) {
	
	if (profundidad<30) {
		if (solucionado(estados_ranas) == 1) {
			
			printf("-------------->solucionado");
			return;
		}
		else {
			
			char aux[7];
			asignar(aux, estados_ranas);
			imprimir_ranas(aux);
			printf("\n");
			for (int i = 0; i < 7; i++) {
				
				if (aux[i] == 'R') {
					if (i != 6) {
						if (aux[i + 1] == ' ') {
							aux[i + 1] = 'R';
							aux[i] = ' ';
							ranas_saltan(aux, profundidad + 1);
						}
						if (aux[i + 1] == 'A') {
							if ((i + 2) < 7) {
								if (aux[i + 2] == ' ') {
									aux[i] = ' ';
									aux[i + 2] = 'R';
									ranas_saltan(aux, profundidad + 1);
								}
							}
						}
					}
				}
				if (aux[i] == 'A') {
					if (i != 0) {
						if (aux[i - 1] == ' ') {
							aux[i] = ' ';
							aux[i - 1] = 'A';
							ranas_saltan(aux, profundidad + 1);
						}
						if (aux[i - 1] == 'R') {
							if (i - 2 > 0) {
								aux[i] = ' ';
								aux[i - 2] = 'A';
								ranas_saltan(aux, profundidad + 1);
							}
						}
					}

				}

		}
			





			}

		
		}


	
}



void asignar(char uno[],char dos[]) {
	for (int i = 0; i < 7; i++) {
		uno[i] = dos[i];
	}

}
void imprimir_ranas(char uno[]) {
	for (int i = 0; i < 7; i++)	{
		printf("%c",uno[i]);


	}

}
