^C:\IA\GRANJERO\GRANJERO\STDAFX.CPP
C:\IA\GRANJERO\GRANJERO\DEBUG\GRANJERO.PCH
C:\IA\GRANJERO\GRANJERO\DEBUG\VC141.PDB
C:\IA\GRANJERO\GRANJERO\DEBUG\VC141.IDB
C:\IA\GRANJERO\GRANJERO\DEBUG\STDAFX.OBJ
^C:\IA\GRANJERO\GRANJERO\GRANJERO.CPP
C:\IA\GRANJERO\GRANJERO\DEBUG\VC141.PDB
C:\IA\GRANJERO\GRANJERO\DEBUG\VC141.IDB
C:\IA\GRANJERO\GRANJERO\DEBUG\GRANJERO.OBJ
