c:\ia\linterna_familia\linterna_familia\x64\debug\linterna_familia.pch
c:\ia\linterna_familia\linterna_familia\x64\debug\vc141.pdb
c:\ia\linterna_familia\linterna_familia\x64\debug\vc141.idb
c:\ia\linterna_familia\linterna_familia\x64\debug\stdafx.obj
c:\ia\linterna_familia\linterna_familia\x64\debug\linterna_familia.obj
c:\ia\linterna_familia\x64\debug\linterna_familia.exe
c:\ia\linterna_familia\x64\debug\linterna_familia.ilk
c:\ia\linterna_familia\x64\debug\linterna_familia.pdb
c:\ia\linterna_familia\linterna_familia\x64\debug\linterna_familia.tlog\cl.command.1.tlog
c:\ia\linterna_familia\linterna_familia\x64\debug\linterna_familia.tlog\cl.read.1.tlog
c:\ia\linterna_familia\linterna_familia\x64\debug\linterna_familia.tlog\cl.write.1.tlog
c:\ia\linterna_familia\linterna_familia\x64\debug\linterna_familia.tlog\link.command.1.tlog
c:\ia\linterna_familia\linterna_familia\x64\debug\linterna_familia.tlog\link.read.1.tlog
c:\ia\linterna_familia\linterna_familia\x64\debug\linterna_familia.tlog\link.write.1.tlog
